<?xml version="1.0" encoding="UTF-8" standalone="no"?>
<svg
   xmlns:dc="http://purl.org/dc/elements/1.1/"
   xmlns:cc="http://creativecommons.org/ns#"
   xmlns:rdf="http://www.w3.org/1999/02/22-rdf-syntax-ns#"
   xmlns:svg="http://www.w3.org/2000/svg"
   xmlns="http://www.w3.org/2000/svg"
   xmlns:sodipodi="http://sodipodi.sourceforge.net/DTD/sodipodi-0.dtd"
   xmlns:inkscape="http://www.inkscape.org/namespaces/inkscape"
   width="144mm"
   height="144mm"
   viewBox="0 0 144 144"
   version="1.1"
   id="svg8"
   inkscape:version="1.0.2 (e86c870879, 2021-01-15)"
   sodipodi:docname="icon.svg">
  <defs
     id="defs2">
    <marker
       style="overflow:visible"
       id="DiamondLend"
       refX="0"
       refY="0"
       orient="auto"
       inkscape:stockid="DiamondLend"
       inkscape:isstock="true">
      <path
         transform="matrix(0.8,0,0,0.8,-5.6,0)"
         style="fill:#000000;fill-opacity:1;fill-rule:evenodd;stroke:none;stroke-width:1pt;stroke-opacity:1"
         d="M 0,-7.0710768 -7.0710894,0 0,7.0710589 7.0710462,0 Z"
         id="path1221" />
    </marker>
    <marker
       style="overflow:visible"
       id="Arrow1Lstart"
       refX="0"
       refY="0"
       orient="auto"
       inkscape:stockid="Arrow1Lstart"
       inkscape:isstock="true">
      <path
         transform="matrix(0.8,0,0,0.8,10,0)"
         style="fill:#000000;fill-opacity:1;fill-rule:evenodd;stroke:#3b9e2e;stroke-width:1pt;stroke-opacity:1"
         d="M 0,0 5,-5 -12.5,0 5,5 Z"
         id="path1124" />
    </marker>
  </defs>
  <sodipodi:namedview
     id="base"
     pagecolor="#ffffff"
     bordercolor="#666666"
     borderopacity="1.0"
     inkscape:pageopacity="0.0"
     inkscape:pageshadow="2"
     inkscape:zoom="1.4"
     inkscape:cx="-50.832975"
     inkscape:cy="223.4959"
     inkscape:document-units="mm"
     inkscape:current-layer="layer3"
     inkscape:document-rotation="0"
     showgrid="false"
     showguides="true"
     inkscape:guide-bbox="true"
     inkscape:snap-global="true"
     inkscape:window-width="3394"
     inkscape:window-height="1405"
     inkscape:window-x="0"
     inkscape:window-y="0"
     inkscape:window-maximized="1"
     fit-margin-top="0"
     fit-margin-left="0"
     fit-margin-right="0"
     fit-margin-bottom="0" />
  <metadata
     id="metadata5">
    <rdf:RDF>
      <cc:Work
         rdf:about="">
        <dc:format>image/svg+xml</dc:format>
        <dc:type
           rdf:resource="http://purl.org/dc/dcmitype/StillImage" />
        <dc:title></dc:title>
      </cc:Work>
    </rdf:RDF>
  </metadata>
  <g
     inkscape:groupmode="layer"
     id="layer3"
     inkscape:label="background"
     transform="translate(-5.7409821,-11.032646)">
    <rect
       style="fill:#0c121c;fill-opacity:1;stroke:#2e5f9e;stroke-width:4;stroke-miterlimit:4;stroke-dasharray:none;stroke-opacity:1"
       id="rect872"
       width="140"
       height="140"
       x="7.7409821"
       y="13.032646"
       ry="14.165285"
       inkscape:export-filename="/home/aethera/dev/input/protopedal/icon.png"
       inkscape:export-xdpi="22.58"
       inkscape:export-ydpi="22.58" />
  </g>
  <g
     inkscape:groupmode="layer"
     id="layer2"
     inkscape:label="matrix"
     style="display:inline"
     transform="translate(-5.7409821,-11.032646)">
    <circle
       style="opacity:1;fill:none;fill-opacity:1;stroke:#21571a;stroke-width:4.48909;stroke-miterlimit:4;stroke-dasharray:17.9563, 4.48909;stroke-dashoffset:0;stroke-opacity:1"
       id="path1005"
       cx="95.936447"
       cy="65.385994"
       r="40.692459" />
    <path
       style="fill:#3b9e2e;fill-opacity:0.497836;stroke:none;stroke-width:1.08322;stroke-linecap:butt;stroke-linejoin:miter;stroke-miterlimit:4;stroke-dasharray:none;stroke-opacity:1"
       d="m 102.20144,42.530368 c 7.08253,1.939754 12.86004,7.063222 15.63271,13.863027 2.77266,6.799802 2.22506,14.502376 -1.48169,20.841538 l -5.23492,-3.061058 c 2.7551,-4.711681 3.16211,-10.436738 1.10129,-15.490796 -2.06083,-5.054058 -6.35504,-8.862155 -11.61925,-10.303906 z"
       id="path1078"
       sodipodi:nodetypes="csccscc" />
    <path
       style="fill:#3b9e2e;fill-opacity:0.497836;stroke:none;stroke-width:1.08322;stroke-linecap:butt;stroke-linejoin:miter;stroke-miterlimit:4;stroke-dasharray:none;stroke-opacity:1"
       d="M 89.619166,88.103641 C 82.536626,86.163887 76.759119,81.040417 73.986453,74.240612 71.213787,67.44081 71.761387,59.738235 75.468139,53.399073 l 5.234919,3.06106 c -2.755101,4.711679 -3.162112,10.436737 -1.101285,15.490795 2.060827,5.054058 6.355047,8.862155 11.619254,10.303907 z"
       id="path1080"
       sodipodi:nodetypes="csccscc"
       inkscape:transform-center-x="10.873489"
       inkscape:transform-center-y="4.1532542" />
    <path
       style="fill:none;stroke:#6b94d3;stroke-width:3.48781;stroke-linecap:butt;stroke-linejoin:miter;stroke-miterlimit:4;stroke-dasharray:none;stroke-opacity:1"
       d="m 146.65342,65.421305 c 0,15.763093 -7.33133,30.629564 -19.83703,40.225535 -12.5057,9.59594 -28.763087,12.82974 -43.989062,8.74995 l 3.369113,-12.57369 c 11.316941,3.03237 23.400489,0.62879 32.695539,-6.503551 9.29506,-7.132355 14.74418,-18.182085 14.74418,-29.898244 z"
       id="path1015"
       sodipodi:nodetypes="csccscc" />
    <path
       style="fill:none;stroke:#6b94d3;stroke-width:3.48781;stroke-linecap:butt;stroke-linejoin:miter;stroke-miterlimit:4;stroke-dasharray:none;stroke-opacity:1"
       d="m 45.167191,65.212715 c 0,-15.763094 7.331333,-30.62956 19.837035,-40.225521 12.505701,-9.59596 28.763092,-12.829753 43.989054,-8.749969 l -3.3691,12.573705 C 94.307241,25.778565 82.223683,28.182133 72.928629,35.314479 63.633575,42.446824 58.184453,53.496554 58.184453,65.212715 Z"
       id="path1066"
       sodipodi:nodetypes="csccscc"
       inkscape:transform-center-x="12.302105"
       inkscape:transform-center-y="-16.631039" />
    <circle
       style="opacity:1;fill:none;fill-opacity:1;stroke:#284c85;stroke-width:3.47121;stroke-miterlimit:4;stroke-dasharray:none;stroke-dashoffset:0;stroke-opacity:1"
       id="circle1082"
       cx="95.936363"
       cy="65.385132"
       r="29.76586" />
    <circle
       style="opacity:1;fill:none;fill-opacity:1;stroke:#2e5a9e;stroke-width:2;stroke-miterlimit:4;stroke-dasharray:2, 2;stroke-dashoffset:0;stroke-opacity:0.887446"
       id="circle1084"
       cx="95.936317"
       cy="65.385132"
       r="13.695749" />
  </g>
  <g
     inkscape:groupmode="layer"
     id="layer5"
     inkscape:label="virtual"
     style="display:inline"
     sodipodi:insensitive="true"
     transform="translate(-5.7409821,-11.032646)">
    <rect
       style="fill:#3b9e2e;fill-opacity:1;stroke:none;stroke-width:1;stroke-miterlimit:4;stroke-dasharray:none;stroke-opacity:1"
       id="rect979"
       width="37.041668"
       height="35.151787"
       x="33.024525"
       y="32.800537" />
    <path
       style="fill:#3b9e2e;fill-opacity:1;stroke:none;stroke-width:0.264583px;stroke-linecap:butt;stroke-linejoin:miter;stroke-opacity:1"
       d="M 110.88761,34.123452 V 93.371221 H 86.224669 V 48.959017 l 3.590774,-15.875 z"
       id="path985" />
    <path
       style="fill:none;stroke:#535353;stroke-width:2;stroke-linecap:butt;stroke-linejoin:miter;stroke-miterlimit:4;stroke-dasharray:none;stroke-opacity:1"
       d="M 134.47133,108.38324 H 19.045362"
       id="path969" />
    <path
       id="path965"
       style="fill:#535353;fill-opacity:1;stroke-width:0.391403"
       d="m 34.03434,31.14919 c -1.006748,0 -1.81746,0.81071 -1.81746,1.81746 v 35.409206 c 0,1.00675 0.810712,1.816944 1.81746,1.816944 h 10.933699 v 38.19044 h 13.44259 V 70.1928 h 10.9337 c 1.006747,0 1.81746,-0.810194 1.81746,-1.816944 V 32.96665 c 0,-1.00675 -0.810713,-1.81746 -1.81746,-1.81746 z m 5.299418,3.119705 a 4.5904522,4.5904522 0 0 1 4.590418,4.590418 4.5904522,4.5904522 0 0 1 -4.590418,4.590417 4.5904522,4.5904522 0 0 1 -4.590418,-4.590417 4.5904522,4.5904522 0 0 1 4.590418,-4.590418 z m 12.355835,0 a 4.5904522,4.5904522 0 0 1 4.590418,4.590418 4.5904522,4.5904522 0 0 1 -4.590418,4.590417 4.5904522,4.5904522 0 0 1 -4.590417,-4.590417 4.5904522,4.5904522 0 0 1 4.590417,-4.590418 z m 12.355317,0 a 4.5904522,4.5904522 0 0 1 4.590418,4.590418 4.5904522,4.5904522 0 0 1 -4.590418,4.590417 4.5904522,4.5904522 0 0 1 -4.590418,-4.590417 4.5904522,4.5904522 0 0 1 4.590418,-4.590418 z M 39.333758,46.080578 a 4.5904522,4.5904522 0 0 1 4.590418,4.590417 4.5904522,4.5904522 0 0 1 -4.590418,4.590418 4.5904522,4.5904522 0 0 1 -4.590418,-4.590418 4.5904522,4.5904522 0 0 1 4.590418,-4.590417 z m 12.355835,0 a 4.5904522,4.5904522 0 0 1 4.590418,4.590417 4.5904522,4.5904522 0 0 1 -4.590418,4.590418 4.5904522,4.5904522 0 0 1 -4.590417,-4.590418 4.5904522,4.5904522 0 0 1 4.590417,-4.590417 z m 12.355317,0 a 4.5904522,4.5904522 0 0 1 4.590418,4.590417 4.5904522,4.5904522 0 0 1 -4.590418,4.590418 4.5904522,4.5904522 0 0 1 -4.590418,-4.590418 4.5904522,4.5904522 0 0 1 4.590418,-4.590417 z M 39.333758,57.892776 a 4.5904522,4.5904522 0 0 1 4.590418,4.590418 4.5904522,4.5904522 0 0 1 -4.590418,4.590417 4.5904522,4.5904522 0 0 1 -4.590418,-4.590417 4.5904522,4.5904522 0 0 1 4.590418,-4.590418 z m 12.355835,0 a 4.5904522,4.5904522 0 0 1 4.590418,4.590418 4.5904522,4.5904522 0 0 1 -4.590418,4.590417 4.5904522,4.5904522 0 0 1 -4.590417,-4.590417 4.5904522,4.5904522 0 0 1 4.590417,-4.590418 z m 12.355317,0 a 4.5904522,4.5904522 0 0 1 4.590418,4.590418 4.5904522,4.5904522 0 0 1 -4.590418,4.590417 4.5904522,4.5904522 0 0 1 -4.590418,-4.590417 4.5904522,4.5904522 0 0 1 4.590418,-4.590418 z" />
    <path
       id="path967"
       style="fill:#535353;fill-opacity:1;stroke-width:0.391403"
       d="m 89.479568,31.331091 -11.537281,46.8421 v 18.019057 c 0,1.00674 0.81019,1.81746 1.81694,1.81746 h 8.305951 V 108.38324 H 101.50776 V 98.009708 h 8.30544 c 1.00675,0 1.81746,-0.81072 1.81746,-1.81746 V 33.148033 c 0,-1.00675 -0.81071,-1.816942 -1.81746,-1.816942 z m 3.990966,2.937804 a 4.5904522,4.5904522 0 0 1 4.590406,4.590418 4.5904522,4.5904522 0 0 1 -4.590406,4.590417 4.5904522,4.5904522 0 0 1 -4.590416,-4.590417 4.5904522,4.5904522 0 0 1 4.590416,-4.590418 z m 12.355306,0 a 4.5904522,4.5904522 0 0 1 4.59042,4.590418 4.5904522,4.5904522 0 0 1 -4.59042,4.590417 4.5904522,4.5904522 0 0 1 -4.59041,-4.590417 4.5904522,4.5904522 0 0 1 4.59041,-4.590418 z M 93.470534,46.080578 a 4.5904522,4.5904522 0 0 1 4.590406,4.590417 4.5904522,4.5904522 0 0 1 -4.590406,4.590418 4.5904522,4.5904522 0 0 1 -4.590416,-4.590418 4.5904522,4.5904522 0 0 1 4.590416,-4.590417 z m 12.355306,0 a 4.5904522,4.5904522 0 0 1 4.59042,4.590417 4.5904522,4.5904522 0 0 1 -4.59042,4.590418 4.5904522,4.5904522 0 0 1 -4.59041,-4.590418 4.5904522,4.5904522 0 0 1 4.59041,-4.590417 z M 93.470534,57.892776 a 4.5904522,4.5904522 0 0 1 4.590406,4.590418 4.5904522,4.5904522 0 0 1 -4.590406,4.590417 4.5904522,4.5904522 0 0 1 -4.590416,-4.590417 4.5904522,4.5904522 0 0 1 4.590416,-4.590418 z m 12.355306,0 a 4.5904522,4.5904522 0 0 1 4.59042,4.590418 4.5904522,4.5904522 0 0 1 -4.59042,4.590417 4.5904522,4.5904522 0 0 1 -4.59041,-4.590417 4.5904522,4.5904522 0 0 1 4.59041,-4.590418 z M 93.470534,70.47392 a 4.5904522,4.5904522 0 0 1 4.590406,4.590417 4.5904522,4.5904522 0 0 1 -4.590406,4.590418 4.5904522,4.5904522 0 0 1 -4.590416,-4.590418 4.5904522,4.5904522 0 0 1 4.590416,-4.590417 z m 12.355306,0 a 4.5904522,4.5904522 0 0 1 4.59042,4.590417 4.5904522,4.5904522 0 0 1 -4.59042,4.590418 4.5904522,4.5904522 0 0 1 -4.59041,-4.590418 4.5904522,4.5904522 0 0 1 4.59041,-4.590417 z M 93.470534,82.285602 a 4.5904522,4.5904522 0 0 1 4.590406,4.590415 4.5904522,4.5904522 0 0 1 -4.590406,4.59042 4.5904522,4.5904522 0 0 1 -4.590416,-4.59042 4.5904522,4.5904522 0 0 1 4.590416,-4.590415 z m 12.355306,0 a 4.5904522,4.5904522 0 0 1 4.59042,4.590415 4.5904522,4.5904522 0 0 1 -4.59042,4.59042 4.5904522,4.5904522 0 0 1 -4.59041,-4.59042 4.5904522,4.5904522 0 0 1 4.59041,-4.590415 z" />
    <circle
       style="fill:#535353;fill-opacity:1;stroke:#535353;stroke-width:0.80135;stroke-miterlimit:4;stroke-dasharray:none;stroke-opacity:1"
       id="path971"
       cx="121.17203"
       cy="132.08563"
       r="12.191392" />
    <text
       xml:space="preserve"
       style="font-style:normal;font-weight:normal;font-size:20.4904px;line-height:1.25;font-family:sans-serif;fill:#000000;fill-opacity:1;stroke:none;stroke-width:0.384196"
       x="108.68302"
       y="139.54616"
       id="text975"><tspan
         sodipodi:role="line"
         id="tspan973"
         x="108.68302"
         y="139.54616"
         style="font-style:normal;font-variant:normal;font-weight:bold;font-stretch:normal;font-size:20.4904px;font-family:Hack;-inkscape-font-specification:'Hack Bold';fill:#5fcd4f;fill-opacity:1;stroke-width:0.384196">VR</tspan></text>
    <circle
       style="fill:none;fill-opacity:1;stroke:#348826;stroke-width:2.64984;stroke-miterlimit:4;stroke-dasharray:none;stroke-opacity:1"
       id="circle977"
       cx="121.17203"
       cy="132.08563"
       r="15.485479" />
  </g>
  <g
     inkscape:groupmode="layer"
     id="layer4"
     inkscape:label="foreground"
     sodipodi:insensitive="true"
     transform="translate(-5.7409821,-11.032646)">
    <path
       id="rect835"
       style="fill:#ffffff;fill-opacity:1;stroke-width:0.391403"
       d="m 14.425863,68.559887 c -1.006748,0 -1.81746,0.81071 -1.81746,1.81746 v 35.409203 c 0,1.00675 0.810712,1.81695 1.81746,1.81695 h 10.9337 v 38.19043 h 13.44259 V 107.6035 h 10.9337 c 1.006747,0 1.81746,-0.8102 1.81746,-1.81695 V 70.377347 c 0,-1.00675 -0.810713,-1.81746 -1.81746,-1.81746 z m 5.299419,3.119705 a 4.5904522,4.5904522 0 0 1 4.590418,4.590418 4.5904522,4.5904522 0 0 1 -4.590418,4.590417 4.5904522,4.5904522 0 0 1 -4.590418,-4.590417 4.5904522,4.5904522 0 0 1 4.590418,-4.590418 z m 12.355835,0 a 4.5904522,4.5904522 0 0 1 4.590418,4.590418 4.5904522,4.5904522 0 0 1 -4.590418,4.590417 4.5904522,4.5904522 0 0 1 -4.590417,-4.590417 4.5904522,4.5904522 0 0 1 4.590417,-4.590418 z m 12.355317,0 a 4.5904522,4.5904522 0 0 1 4.590417,4.590418 4.5904522,4.5904522 0 0 1 -4.590417,4.590417 4.5904522,4.5904522 0 0 1 -4.590418,-4.590417 4.5904522,4.5904522 0 0 1 4.590418,-4.590418 z M 19.725282,83.491274 a 4.5904522,4.5904522 0 0 1 4.590418,4.590418 4.5904522,4.5904522 0 0 1 -4.590418,4.590418 4.5904522,4.5904522 0 0 1 -4.590418,-4.590418 4.5904522,4.5904522 0 0 1 4.590418,-4.590418 z m 12.355835,0 a 4.5904522,4.5904522 0 0 1 4.590418,4.590418 4.5904522,4.5904522 0 0 1 -4.590418,4.590418 4.5904522,4.5904522 0 0 1 -4.590417,-4.590418 4.5904522,4.5904522 0 0 1 4.590417,-4.590418 z m 12.355317,0 a 4.5904522,4.5904522 0 0 1 4.590417,4.590418 4.5904522,4.5904522 0 0 1 -4.590417,4.590418 4.5904522,4.5904522 0 0 1 -4.590418,-4.590418 4.5904522,4.5904522 0 0 1 4.590418,-4.590418 z M 19.725282,95.303473 a 4.5904522,4.5904522 0 0 1 4.590418,4.590417 4.5904522,4.5904522 0 0 1 -4.590418,4.59042 4.5904522,4.5904522 0 0 1 -4.590418,-4.59042 4.5904522,4.5904522 0 0 1 4.590418,-4.590417 z m 12.355835,0 a 4.5904522,4.5904522 0 0 1 4.590418,4.590417 4.5904522,4.5904522 0 0 1 -4.590418,4.59042 4.5904522,4.5904522 0 0 1 -4.590417,-4.59042 4.5904522,4.5904522 0 0 1 4.590417,-4.590417 z m 12.355317,0 a 4.5904522,4.5904522 0 0 1 4.590417,4.590417 4.5904522,4.5904522 0 0 1 -4.590417,4.59042 4.5904522,4.5904522 0 0 1 -4.590418,-4.59042 4.5904522,4.5904522 0 0 1 4.590418,-4.590417 z" />
    <path
       id="rect847"
       style="fill:#ffffff;fill-opacity:1;stroke-width:0.391403"
       d="M 69.871087,68.741788 58.333806,115.58389 v 18.01905 c 0,1.00674 0.810194,1.81746 1.816944,1.81746 h 8.305953 v 10.37353 h 13.44259 V 135.4204 h 8.305437 c 1.006746,0 1.817456,-0.81072 1.817456,-1.81746 V 70.55873 c 0,-1.00675 -0.81071,-1.816942 -1.817456,-1.816942 z m 3.990969,2.937804 a 4.5904522,4.5904522 0 0 1 4.590418,4.590418 4.5904522,4.5904522 0 0 1 -4.590418,4.590417 4.5904522,4.5904522 0 0 1 -4.590417,-4.590417 4.5904522,4.5904522 0 0 1 4.590417,-4.590418 z m 12.355324,0 A 4.5904522,4.5904522 0 0 1 90.807786,76.27001 4.5904522,4.5904522 0 0 1 86.21738,80.860427 4.5904522,4.5904522 0 0 1 81.626958,76.27001 4.5904522,4.5904522 0 0 1 86.21738,71.679592 Z M 73.862056,83.491274 a 4.5904522,4.5904522 0 0 1 4.590418,4.590418 4.5904522,4.5904522 0 0 1 -4.590418,4.590418 4.5904522,4.5904522 0 0 1 -4.590417,-4.590418 4.5904522,4.5904522 0 0 1 4.590417,-4.590418 z m 12.355324,0 a 4.5904522,4.5904522 0 0 1 4.590406,4.590418 4.5904522,4.5904522 0 0 1 -4.590406,4.590418 4.5904522,4.5904522 0 0 1 -4.590422,-4.590418 4.5904522,4.5904522 0 0 1 4.590422,-4.590418 z M 73.862056,95.303473 a 4.5904522,4.5904522 0 0 1 4.590418,4.590417 4.5904522,4.5904522 0 0 1 -4.590418,4.59042 4.5904522,4.5904522 0 0 1 -4.590417,-4.59042 4.5904522,4.5904522 0 0 1 4.590417,-4.590417 z m 12.355324,0 a 4.5904522,4.5904522 0 0 1 4.590406,4.590417 4.5904522,4.5904522 0 0 1 -4.590406,4.59042 4.5904522,4.5904522 0 0 1 -4.590422,-4.59042 4.5904522,4.5904522 0 0 1 4.590422,-4.590417 z M 73.862056,107.88462 a 4.5904522,4.5904522 0 0 1 4.590418,4.59041 4.5904522,4.5904522 0 0 1 -4.590418,4.59042 4.5904522,4.5904522 0 0 1 -4.590417,-4.59042 4.5904522,4.5904522 0 0 1 4.590417,-4.59041 z m 12.355324,0 a 4.5904522,4.5904522 0 0 1 4.590406,4.59041 4.5904522,4.5904522 0 0 1 -4.590406,4.59042 4.5904522,4.5904522 0 0 1 -4.590422,-4.59042 4.5904522,4.5904522 0 0 1 4.590422,-4.59041 z M 73.862056,119.6963 a 4.5904522,4.5904522 0 0 1 4.590418,4.59042 4.5904522,4.5904522 0 0 1 -4.590418,4.59041 4.5904522,4.5904522 0 0 1 -4.590417,-4.59041 4.5904522,4.5904522 0 0 1 4.590417,-4.59042 z m 12.355324,0 a 4.5904522,4.5904522 0 0 1 4.590406,4.59042 4.5904522,4.5904522 0 0 1 -4.590406,4.59041 4.5904522,4.5904522 0 0 1 -4.590422,-4.59041 4.5904522,4.5904522 0 0 1 4.590422,-4.59042 z" />
  </g>
</svg>
